{
  "configVersion": 2,
  "packages": [
    {
      "name": "args",
      "rootUri": "file:///Users/kaushicksargekar/dev/flutter/.pub-cache/hosted/pub.dartlang.org/args-1.6.0",
      "packageUri": "lib/",
      "languageVersion": "2.3"
    },
    {
      "name": "asn1lib",
      "rootUri": "file:///Users/kaushicksargekar/dev/flutter/.pub-cache/hosted/pub.dartlang.org/asn1lib-0.8.1",
      "packageUri": "lib/",
      "languageVersion": "2.2"
    },
    {
      "name": "async_loader",
      "rootUri": "file:///Users/kaushicksargekar/dev/flutter/.pub-cache/hosted/pub.dartlang.org/async_loader-0.1.2",
      "packageUri": "lib/",
      "languageVersion": "1.20"
    },
    {
      "name": "auto_route",
      "rootUri": "file:///Users/kaushicksargekar/dev/flutter/.pub-cache/hosted/pub.dartlang.org/auto_route-0.6.9",
      "packageUri": "lib/",
      "languageVersion": "2.7"
    },
    {
      "name": "auto_size_text",
      "rootUri": "file:///Users/kaushicksargekar/dev/flutter/.pub-cache/hosted/pub.dartlang.org/auto_size_text-2.1.0",
      "packageUri": "lib/",
      "languageVersion": "2.0"
    },
    {
      "name": "basic_utils",
      "rootUri": "file:///Users/kaushicksargekar/dev/flutter/.pub-cache/hosted/pub.dartlang.org/basic_utils-2.7.0-rc.1",
      "packageUri": "lib/",
      "languageVersion": "2.1"
    },
    {
      "name": "characters",
      "rootUri": "file:///Users/kaushicksargekar/dev/flutter/.pub-cache/hosted/pub.dartlang.org/characters-1.1.0-nullsafety.3",
      "packageUri": "lib/",
      "languageVersion": "2.10"
    },
    {
      "name": "charcode",
      "rootUri": "file:///Users/kaushicksargekar/dev/flutter/.pub-cache/hosted/pub.dartlang.org/charcode-1.1.3",
      "packageUri": "lib/",
      "languageVersion": "2.0"
    },
    {
      "name": "clock",
      "rootUri": "file:///Users/kaushicksargekar/dev/flutter/.pub-cache/hosted/pub.dartlang.org/clock-1.0.1",
      "packageUri": "lib/",
      "languageVersion": "2.0"
    },
    {
      "name": "collection",
      "rootUri": "file:///Users/kaushicksargekar/dev/flutter/.pub-cache/hosted/pub.dartlang.org/collection-1.15.0-nullsafety.3",
      "packageUri": "lib/",
      "languageVersion": "2.10"
    },
    {
      "name": "convert",
      "rootUri": "file:///Users/kaushicksargekar/dev/flutter/.pub-cache/hosted/pub.dartlang.org/convert-2.1.1",
      "packageUri": "lib/",
      "languageVersion": "1.17"
    },
    {
      "name": "crypto",
      "rootUri": "file:///Users/kaushicksargekar/dev/flutter/.pub-cache/hosted/pub.dartlang.org/crypto-2.1.5",
      "packageUri": "lib/",
      "languageVersion": "2.3"
    },
    {
      "name": "dio",
      "rootUri": "file:///Users/kaushicksargekar/dev/flutter/.pub-cache/hosted/pub.dartlang.org/dio-3.0.10",
      "packageUri": "lib/",
      "languageVersion": "2.4"
    },
    {
      "name": "encrypt",
      "rootUri": "file:///Users/kaushicksargekar/dev/flutter/.pub-cache/hosted/pub.dartlang.org/encrypt-4.1.0",
      "packageUri": "lib/",
      "languageVersion": "2.2"
    },
    {
      "name": "ffi",
      "rootUri": "file:///Users/kaushicksargekar/dev/flutter/.pub-cache/hosted/pub.dartlang.org/ffi-0.1.3",
      "packageUri": "lib/",
      "languageVersion": "2.6"
    },
    {
      "name": "file",
      "rootUri": "file:///Users/kaushicksargekar/dev/flutter/.pub-cache/hosted/pub.dartlang.org/file-5.2.1",
      "packageUri": "lib/",
      "languageVersion": "2.2"
    },
    {
      "name": "flushbar",
      "rootUri": "file:///Users/kaushicksargekar/dev/flutter/.pub-cache/hosted/pub.dartlang.org/flushbar-1.10.4",
      "packageUri": "lib/",
      "languageVersion": "2.7"
    },
    {
      "name": "flutter",
      "rootUri": "file:///Users/kaushicksargekar/dev/flutter/packages/flutter",
      "packageUri": "lib/",
      "languageVersion": "2.10"
    },
    {
      "name": "flutter_icons",
      "rootUri": "file:///Users/kaushicksargekar/dev/flutter/.pub-cache/hosted/pub.dartlang.org/flutter_icons-1.1.0",
      "packageUri": "lib/",
      "languageVersion": "2.0"
    },
    {
      "name": "flutter_plugin_android_lifecycle",
      "rootUri": "file:///Users/kaushicksargekar/dev/flutter/.pub-cache/hosted/pub.dartlang.org/flutter_plugin_android_lifecycle-1.0.11",
      "packageUri": "lib/",
      "languageVersion": "2.1"
    },
    {
      "name": "flutter_spinkit",
      "rootUri": "file:///Users/kaushicksargekar/dev/flutter/.pub-cache/hosted/pub.dartlang.org/flutter_spinkit-4.1.2+1",
      "packageUri": "lib/",
      "languageVersion": "2.5"
    },
    {
      "name": "flutter_svg",
      "rootUri": "file:///Users/kaushicksargekar/dev/flutter/.pub-cache/hosted/pub.dartlang.org/flutter_svg-0.19.1",
      "packageUri": "lib/",
      "languageVersion": "2.2"
    },
    {
      "name": "flutter_web_plugins",
      "rootUri": "file:///Users/kaushicksargekar/dev/flutter/packages/flutter_web_plugins",
      "packageUri": "lib/",
      "languageVersion": "2.0"
    },
    {
      "name": "http",
      "rootUri": "file:///Users/kaushicksargekar/dev/flutter/.pub-cache/hosted/pub.dartlang.org/http-0.12.2",
      "packageUri": "lib/",
      "languageVersion": "2.4"
    },
    {
      "name": "http_parser",
      "rootUri": "file:///Users/kaushicksargekar/dev/flutter/.pub-cache/hosted/pub.dartlang.org/http_parser-3.1.4",
      "packageUri": "lib/",
      "languageVersion": "2.3"
    },
    {
      "name": "image_cropper",
      "rootUri": "file:///Users/kaushicksargekar/dev/flutter/.pub-cache/hosted/pub.dartlang.org/image_cropper-1.3.1",
      "packageUri": "lib/",
      "languageVersion": "1.20"
    },
    {
      "name": "image_picker",
      "rootUri": "file:///Users/kaushicksargekar/dev/flutter/.pub-cache/hosted/pub.dartlang.org/image_picker-0.6.7+12",
      "packageUri": "lib/",
      "languageVersion": "2.1"
    },
    {
      "name": "image_picker_platform_interface",
      "rootUri": "file:///Users/kaushicksargekar/dev/flutter/.pub-cache/hosted/pub.dartlang.org/image_picker_platform_interface-1.1.1",
      "packageUri": "lib/",
      "languageVersion": "2.5"
    },
    {
      "name": "intl",
      "rootUri": "file:///Users/kaushicksargekar/dev/flutter/.pub-cache/hosted/pub.dartlang.org/intl-0.16.1",
      "packageUri": "lib/",
      "languageVersion": "2.5"
    },
    {
      "name": "js",
      "rootUri": "file:///Users/kaushicksargekar/dev/flutter/.pub-cache/hosted/pub.dartlang.org/js-0.6.3-nullsafety.1",
      "packageUri": "lib/",
      "languageVersion": "2.10"
    },
    {
      "name": "json_annotation",
      "rootUri": "file:///Users/kaushicksargekar/dev/flutter/.pub-cache/hosted/pub.dartlang.org/json_annotation-3.1.0",
      "packageUri": "lib/",
      "languageVersion": "2.7"
    },
    {
      "name": "logger",
      "rootUri": "file:///Users/kaushicksargekar/dev/flutter/.pub-cache/hosted/pub.dartlang.org/logger-0.9.4",
      "packageUri": "lib/",
      "languageVersion": "2.2"
    },
    {
      "name": "logging",
      "rootUri": "file:///Users/kaushicksargekar/dev/flutter/.pub-cache/hosted/pub.dartlang.org/logging-0.11.4",
      "packageUri": "lib/",
      "languageVersion": "2.0"
    },
    {
      "name": "meta",
      "rootUri": "file:///Users/kaushicksargekar/dev/flutter/.pub-cache/hosted/pub.dartlang.org/meta-1.3.0-nullsafety.4",
      "packageUri": "lib/",
      "languageVersion": "2.10"
    },
    {
      "name": "path",
      "rootUri": "file:///Users/kaushicksargekar/dev/flutter/.pub-cache/hosted/pub.dartlang.org/path-1.7.0",
      "packageUri": "lib/",
      "languageVersion": "2.0"
    },
    {
      "name": "path_drawing",
      "rootUri": "file:///Users/kaushicksargekar/dev/flutter/.pub-cache/hosted/pub.dartlang.org/path_drawing-0.4.1+1",
      "packageUri": "lib/",
      "languageVersion": "1.19"
    },
    {
      "name": "path_parsing",
      "rootUri": "file:///Users/kaushicksargekar/dev/flutter/.pub-cache/hosted/pub.dartlang.org/path_parsing-0.1.4",
      "packageUri": "lib/",
      "languageVersion": "1.19"
    },
    {
      "name": "path_provider_linux",
      "rootUri": "file:///Users/kaushicksargekar/dev/flutter/.pub-cache/hosted/pub.dartlang.org/path_provider_linux-0.0.1+2",
      "packageUri": "lib/",
      "languageVersion": "2.1"
    },
    {
      "name": "path_provider_platform_interface",
      "rootUri": "file:///Users/kaushicksargekar/dev/flutter/.pub-cache/hosted/pub.dartlang.org/path_provider_platform_interface-1.0.3",
      "packageUri": "lib/",
      "languageVersion": "2.1"
    },
    {
      "name": "path_provider_windows",
      "rootUri": "file:///Users/kaushicksargekar/dev/flutter/.pub-cache/hosted/pub.dartlang.org/path_provider_windows-0.0.4+1",
      "packageUri": "lib/",
      "languageVersion": "2.1"
    },
    {
      "name": "pedantic",
      "rootUri": "file:///Users/kaushicksargekar/dev/flutter/.pub-cache/hosted/pub.dartlang.org/pedantic-1.9.2",
      "packageUri": "lib/",
      "languageVersion": "2.1"
    },
    {
      "name": "persistent_bottom_nav_bar",
      "rootUri": "file:///Users/kaushicksargekar/dev/flutter/.pub-cache/hosted/pub.dartlang.org/persistent_bottom_nav_bar-2.1.0",
      "packageUri": "lib/",
      "languageVersion": "2.1"
    },
    {
      "name": "petitparser",
      "rootUri": "file:///Users/kaushicksargekar/dev/flutter/.pub-cache/hosted/pub.dartlang.org/petitparser-3.1.0",
      "packageUri": "lib/",
      "languageVersion": "2.7"
    },
    {
      "name": "platform",
      "rootUri": "file:///Users/kaushicksargekar/dev/flutter/.pub-cache/hosted/pub.dartlang.org/platform-2.2.1",
      "packageUri": "lib/",
      "languageVersion": "1.24"
    },
    {
      "name": "plugin_platform_interface",
      "rootUri": "file:///Users/kaushicksargekar/dev/flutter/.pub-cache/hosted/pub.dartlang.org/plugin_platform_interface-1.0.3",
      "packageUri": "lib/",
      "languageVersion": "2.1"
    },
    {
      "name": "pointycastle",
      "rootUri": "file:///Users/kaushicksargekar/dev/flutter/.pub-cache/hosted/pub.dartlang.org/pointycastle-2.0.0",
      "packageUri": "lib/",
      "languageVersion": "2.1"
    },
    {
      "name": "prefs_guard",
      "rootUri": "file:///Users/kaushicksargekar/dev/flutter/.pub-cache/hosted/pub.dartlang.org/prefs_guard-0.0.6",
      "packageUri": "lib/",
      "languageVersion": "2.1"
    },
    {
      "name": "process",
      "rootUri": "file:///Users/kaushicksargekar/dev/flutter/.pub-cache/hosted/pub.dartlang.org/process-3.0.13",
      "packageUri": "lib/",
      "languageVersion": "2.0"
    },
    {
      "name": "random_string",
      "rootUri": "file:///Users/kaushicksargekar/dev/flutter/.pub-cache/hosted/pub.dartlang.org/random_string-2.1.0",
      "packageUri": "lib/",
      "languageVersion": "2.1"
    },
    {
      "name": "retrofit",
      "rootUri": "file:///Users/kaushicksargekar/dev/flutter/.pub-cache/hosted/pub.dartlang.org/retrofit-1.3.4+1",
      "packageUri": "lib/",
      "languageVersion": "2.6"
    },
    {
      "name": "shared_preferences",
      "rootUri": "file:///Users/kaushicksargekar/dev/flutter/.pub-cache/hosted/pub.dartlang.org/shared_preferences-0.5.12+2",
      "packageUri": "lib/",
      "languageVersion": "2.1"
    },
    {
      "name": "shared_preferences_linux",
      "rootUri": "file:///Users/kaushicksargekar/dev/flutter/.pub-cache/hosted/pub.dartlang.org/shared_preferences_linux-0.0.2+2",
      "packageUri": "lib/",
      "languageVersion": "2.1"
    },
    {
      "name": "shared_preferences_macos",
      "rootUri": "file:///Users/kaushicksargekar/dev/flutter/.pub-cache/hosted/pub.dartlang.org/shared_preferences_macos-0.0.1+10",
      "packageUri": "lib/",
      "languageVersion": "2.1"
    },
    {
      "name": "shared_preferences_platform_interface",
      "rootUri": "file:///Users/kaushicksargekar/dev/flutter/.pub-cache/hosted/pub.dartlang.org/shared_preferences_platform_interface-1.0.4",
      "packageUri": "lib/",
      "languageVersion": "2.1"
    },
    {
      "name": "shared_preferences_web",
      "rootUri": "file:///Users/kaushicksargekar/dev/flutter/.pub-cache/hosted/pub.dartlang.org/shared_preferences_web-0.1.2+7",
      "packageUri": "lib/",
      "languageVersion": "2.1"
    },
    {
      "name": "shared_preferences_windows",
      "rootUri": "file:///Users/kaushicksargekar/dev/flutter/.pub-cache/hosted/pub.dartlang.org/shared_preferences_windows-0.0.1+1",
      "packageUri": "lib/",
      "languageVersion": "2.1"
    },
    {
      "name": "sized_context",
      "rootUri": "file:///Users/kaushicksargekar/dev/flutter/.pub-cache/hosted/pub.dartlang.org/sized_context-0.2.1+1",
      "packageUri": "lib/",
      "languageVersion": "2.6"
    },
    {
      "name": "sky_engine",
      "rootUri": "file:///Users/kaushicksargekar/dev/flutter/bin/cache/pkg/sky_engine",
      "packageUri": "lib/",
      "languageVersion": "1.11"
    },
    {
      "name": "source_span",
      "rootUri": "file:///Users/kaushicksargekar/dev/flutter/.pub-cache/hosted/pub.dartlang.org/source_span-1.7.0",
      "packageUri": "lib/",
      "languageVersion": "2.6"
    },
    {
      "name": "string_scanner",
      "rootUri": "file:///Users/kaushicksargekar/dev/flutter/.pub-cache/hosted/pub.dartlang.org/string_scanner-1.0.5",
      "packageUri": "lib/",
      "languageVersion": "2.0"
    },
    {
      "name": "term_glyph",
      "rootUri": "file:///Users/kaushicksargekar/dev/flutter/.pub-cache/hosted/pub.dartlang.org/term_glyph-1.1.0",
      "packageUri": "lib/",
      "languageVersion": "1.8"
    },
    {
      "name": "typed_data",
      "rootUri": "file:///Users/kaushicksargekar/dev/flutter/.pub-cache/hosted/pub.dartlang.org/typed_data-1.3.0-nullsafety.3",
      "packageUri": "lib/",
      "languageVersion": "2.10"
    },
    {
      "name": "universal_platform",
      "rootUri": "file:///Users/kaushicksargekar/dev/flutter/.pub-cache/hosted/pub.dartlang.org/universal_platform-0.1.3",
      "packageUri": "lib/",
      "languageVersion": "2.6"
    },
    {
      "name": "validators",
      "rootUri": "file:///Users/kaushicksargekar/dev/flutter/.pub-cache/hosted/pub.dartlang.org/validators-2.0.1",
      "packageUri": "lib/",
      "languageVersion": "2.0"
    },
    {
      "name": "vector_math",
      "rootUri": "file:///Users/kaushicksargekar/dev/flutter/.pub-cache/hosted/pub.dartlang.org/vector_math-2.1.0-nullsafety.3",
      "packageUri": "lib/",
      "languageVersion": "2.10"
    },
    {
      "name": "velocity_x",
      "rootUri": "file:///Users/kaushicksargekar/dev/flutter/.pub-cache/hosted/pub.dartlang.org/velocity_x-0.5.0",
      "packageUri": "lib/",
      "languageVersion": "2.9"
    },
    {
      "name": "vin_decoder",
      "rootUri": "file:///Users/kaushicksargekar/dev/flutter/.pub-cache/hosted/pub.dartlang.org/vin_decoder-0.1.2",
      "packageUri": "lib/",
      "languageVersion": "2.1"
    },
    {
      "name": "win32",
      "rootUri": "file:///Users/kaushicksargekar/dev/flutter/.pub-cache/hosted/pub.dartlang.org/win32-1.7.3",
      "packageUri": "lib/",
      "languageVersion": "2.7"
    },
    {
      "name": "xdg_directories",
      "rootUri": "file:///Users/kaushicksargekar/dev/flutter/.pub-cache/hosted/pub.dartlang.org/xdg_directories-0.1.2",
      "packageUri": "lib/",
      "languageVersion": "2.3"
    },
    {
      "name": "xml",
      "rootUri": "file:///Users/kaushicksargekar/dev/flutter/.pub-cache/hosted/pub.dartlang.org/xml-4.5.1",
      "packageUri": "lib/",
      "languageVersion": "2.7"
    },
    {
      "name": "flutter_aio_pack",
      "rootUri": "../",
      "packageUri": "lib/",
      "languageVersion": "2.7"
    }
  ],
  "generated": "2020-11-01T05:08:20.885070Z",
  "generator": "pub",
  "generatorVersion": "2.11.0-213.1.beta"
}
